{
  "count": 9,
  "next": "http://pokeapi.co/api/v2/pokemon?offset=1&limit=1",
  "previous": null,
  "results": [{
    "name": "bulbasaur",
    "url": "https://pokeapi.co/api/v2/pokemon/1/"
  }]
}